{
  "boot_progress_start": {
    "summary": {
      "units": "ms", 
      "values": [
        1252.0, 
        1212.0, 
        1209.0, 
        1251.0, 
        1188.0, 
        1240.0, 
        1188.0, 
        1241.0, 
        1229.0, 
        1156.0
      ], 
      "type": "list_of_scalar_values", 
      "improvement_direction": "down"
    }
  }, 
  "boot_progress_pms_scan_end": {
    "summary": {
      "units": "ms", 
      "type": "list_of_scalar_values", 
      "values": [
        2886.0, 
        2970.0, 
        2952.0, 
        2890.0, 
        2863.0, 
        2902.0, 
        2869.0, 
        2997.0, 
        2976.0, 
        2924.0
      ], 
      "improvement_direction": "down"
    }
  }, 
  "boot_progress_preload_end": {
    "summary": {
      "units": "ms", 
      "values": [
        2215.0, 
        2277.0, 
        2278.0, 
        2214.0, 
        2189.0, 
        2253.0, 
        2205.0, 
        2303.0, 
        2322.0, 
        2226.0
      ], 
      "type": "list_of_scalar_values", 
      "improvement_direction": "down"
    }
  }, 
  "boot_progress_pms_ready": {
    "summary": {
      "units": "ms", 
      "type": "list_of_scalar_values", 
      "values": [
        2934.0, 
        3019.0, 
        3003.0, 
        2937.0, 
        2912.0, 
        2952.0, 
        2925.0, 
        3046.0, 
        3028.0, 
        2973.0
      ], 
      "improvement_direction": "down"
    }
  }, 
  "boot_progress_ams_ready": {
    "summary": {
      "units": "ms", 
      "values": [
        3387.0, 
        3461.0, 
        3435.0, 
        3386.0, 
        3323.0, 
        3418.0, 
        3378.0, 
        3483.0, 
        3480.0, 
        3439.0
      ], 
      "type": "list_of_scalar_values", 
      "improvement_direction": "down"
    }
  }, 
  "boot_progress_enable_screen": {
    "summary": {
      "units": "ms", 
      "type": "list_of_scalar_values", 
      "values": [
        3529.0, 
        3595.0, 
        3573.0, 
        3531.0, 
        3485.0, 
        3596.0, 
        3519.0, 
        3617.0, 
        3601.0, 
        3579.0
      ], 
      "improvement_direction": "down"
    }
  }, 
  "boot_progress_pms_start": {
    "summary": {
      "units": "ms", 
      "values": [
        2710.0, 
        2804.0, 
        2777.0, 
        2730.0, 
        2703.0, 
        2742.0, 
        2712.0, 
        2824.0, 
        2809.0, 
        2754.0
      ], 
      "type": "list_of_scalar_values", 
      "improvement_direction": "down"
    }
  }, 
  "boot_progress_preload_start": {
    "summary": {
      "units": "ms", 
      "type": "list_of_scalar_values", 
      "values": [
        1823.0, 
        1904.0, 
        1893.0, 
        1832.0, 
        1810.0, 
        1895.0, 
        1816.0, 
        1908.0, 
        1901.0, 
        1826.0
      ], 
      "improvement_direction": "down"
    }
  }, 
  "boot_progress_system_run": {
    "summary": {
      "units": "ms", 
      "values": [
        2341.0, 
        2411.0, 
        2401.0, 
        2344.0, 
        2315.0, 
        2381.0, 
        2338.0, 
        2444.0, 
        2442.0, 
        2351.0
      ], 
      "type": "list_of_scalar_values", 
      "improvement_direction": "down"
    }
  }, 
  "boot_progress_pms_system_scan_start": {
    "summary": {
      "units": "ms", 
      "type": "list_of_scalar_values", 
      "values": [
        2765.0, 
        2853.0, 
        2828.0, 
        2778.0, 
        2755.0, 
        2788.0, 
        2754.0, 
        2875.0, 
        2859.0, 
        2803.0
      ], 
      "improvement_direction": "down"
    }
  }, 
  "boot_progress_pms_data_scan_start": {
    "summary": {
      "units": "ms", 
      "values": [
        2811.0, 
        2897.0, 
        2878.0, 
        2819.0, 
        2791.0, 
        2830.0, 
        2793.0, 
        2916.0, 
        2901.0, 
        2852.0
      ], 
      "type": "list_of_scalar_values", 
      "improvement_direction": "down"
    }
  }
}