{
  "entries": [
    {
      "buttonsDown": 0,
      "fingers": [
        {
          "flags": 0,
          "orientation": 0,
          "positionX": 606,
          "positionY": 557,
          "pressure": 47,
          "touchMajor": 0,
          "touchMinor": 0,
          "trackingId": 770,
          "widthMajor": 0,
          "widthMinor": 0
        }
      ],
      "timestamp": 1906.436132,
      "touchCount": 1,
      "type": "hardwareState"
    },
    {
      "type": "callbackRequest",
      "when": 0
    },
    {
      "buttonsDown": 0,
      "fingers": [
        {
          "flags": 0,
          "orientation": 0,
          "positionX": 605,
          "positionY": 557,
          "pressure": 47,
          "touchMajor": 0,
          "touchMinor": 0,
          "trackingId": 770,
          "widthMajor": 0,
          "widthMinor": 0
        }
      ],
      "timestamp": 1906.444921,
      "touchCount": 1,
      "type": "hardwareState"
    },
    {
      "type": "callbackRequest",
      "when": 0
    },
    {
      "buttonsDown": 0,
      "fingers": [
        {
          "flags": 0,
          "orientation": 0,
          "positionX": 605,
          "positionY": 557,
          "pressure": 48,
          "touchMajor": 0,
          "touchMinor": 0,
          "trackingId": 770,
          "widthMajor": 0,
          "widthMinor": 0
        }
      ],
      "timestamp": 1906.453663,
      "touchCount": 1,
      "type": "hardwareState"
    },
    {
      "type": "callbackRequest",
      "when": 0
    },
    {
      "buttonsDown": 0,
      "fingers": [
        {
          "flags": 0,
          "orientation": 0,
          "positionX": 605,
          "positionY": 557,
          "pressure": 47,
          "touchMajor": 0,
          "touchMinor": 0,
          "trackingId": 770,
          "widthMajor": 0,
          "widthMinor": 0
        }
      ],
      "timestamp": 1906.462453,
      "touchCount": 1,
      "type": "hardwareState"
    },
    {
      "type": "callbackRequest",
      "when": 0
    },
    {
      "buttonsDown": 0,
      "fingers": [
        {
          "flags": 0,
          "orientation": 0,
          "positionX": 604,
          "positionY": 557,
          "pressure": 47,
          "touchMajor": 0,
          "touchMinor": 0,
          "trackingId": 770,
          "widthMajor": 0,
          "widthMinor": 0
        }
      ],
      "timestamp": 1906.47116,
      "touchCount": 1,
      "type": "hardwareState"
    },
    {
      "type": "callbackRequest",
      "when": 0
    },
    {
      "buttonsDown": 0,
      "fingers": [
        {
          "flags": 0,
          "orientation": 0,
          "positionX": 604,
          "positionY": 556,
          "pressure": 46,
          "touchMajor": 0,
          "touchMinor": 0,
          "trackingId": 770,
          "widthMajor": 0,
          "widthMinor": 0
        }
      ],
      "timestamp": 1906.488705,
      "touchCount": 1,
      "type": "hardwareState"
    },
    {
      "type": "callbackRequest",
      "when": 0
    },
    {
      "buttonsDown": 0,
      "fingers": [
        {
          "flags": 0,
          "orientation": 0,
          "positionX": 604,
          "positionY": 556,
          "pressure": 47,
          "touchMajor": 0,
          "touchMinor": 0,
          "trackingId": 770,
          "widthMajor": 0,
          "widthMinor": 0
        }
      ],
      "timestamp": 1906.497454,
      "touchCount": 1,
      "type": "hardwareState"
    },
    {
      "type": "callbackRequest",
      "when": 0
    },
    {
      "buttonsDown": 0,
      "fingers": [
        {
          "flags": 0,
          "orientation": 0,
          "positionX": 603,
          "positionY": 556,
          "pressure": 46,
          "touchMajor": 0,
          "touchMinor": 0,
          "trackingId": 770,
          "widthMajor": 0,
          "widthMinor": 0
        }
      ],
      "timestamp": 1906.523702,
      "touchCount": 1,
      "type": "hardwareState"
    },
    {
      "type": "callbackRequest",
      "when": 0
    },
    {
      "buttonsDown": 0,
      "fingers": [
        {
          "flags": 0,
          "orientation": 0,
          "positionX": 603,
          "positionY": 556,
          "pressure": 47,
          "touchMajor": 0,
          "touchMinor": 0,
          "trackingId": 770,
          "widthMajor": 0,
          "widthMinor": 0
        }
      ],
      "timestamp": 1906.56742,
      "touchCount": 1,
      "type": "hardwareState"
    },
    {
      "type": "callbackRequest",
      "when": 0
    },
    {
      "buttonsDown": 0,
      "fingers": [
        {
          "flags": 0,
          "orientation": 0,
          "positionX": 603,
          "positionY": 556,
          "pressure": 46,
          "touchMajor": 0,
          "touchMinor": 0,
          "trackingId": 770,
          "widthMajor": 0,
          "widthMinor": 0
        }
      ],
      "timestamp": 1906.584953,
      "touchCount": 1,
      "type": "hardwareState"
    },
    {
      "type": "callbackRequest",
      "when": 0
    },
    {
      "buttonsDown": 0,
      "fingers": [
        {
          "flags": 0,
          "orientation": 0,
          "positionX": 603,
          "positionY": 556,
          "pressure": 47,
          "touchMajor": 0,
          "touchMinor": 0,
          "trackingId": 770,
          "widthMajor": 0,
          "widthMinor": 0
        }
      ],
      "timestamp": 1906.611224,
      "touchCount": 1,
      "type": "hardwareState"
    },
    {
      "type": "callbackRequest",
      "when": 0
    },
    {
      "buttonsDown": 0,
      "fingers": [
        {
          "flags": 0,
          "orientation": 0,
          "positionX": 603,
          "positionY": 556,
          "pressure": 48,
          "touchMajor": 0,
          "touchMinor": 0,
          "trackingId": 770,
          "widthMajor": 0,
          "widthMinor": 0
        }
      ],
      "timestamp": 1906.646372,
      "touchCount": 1,
      "type": "hardwareState"
    },
    {
      "type": "callbackRequest",
      "when": 0
    },
    {
      "buttonsDown": 0,
      "fingers": [
        {
          "flags": 0,
          "orientation": 0,
          "positionX": 603,
          "positionY": 556,
          "pressure": 49,
          "touchMajor": 0,
          "touchMinor": 0,
          "trackingId": 770,
          "widthMajor": 0,
          "widthMinor": 0
        }
      ],
      "timestamp": 1906.655231,
      "touchCount": 1,
      "type": "hardwareState"
    },
    {
      "type": "callbackRequest",
      "when": 0
    },
    {
      "buttonsDown": 0,
      "fingers": [
        {
          "flags": 0,
          "orientation": 0,
          "positionX": 603,
          "positionY": 556,
          "pressure": 50,
          "touchMajor": 0,
          "touchMinor": 0,
          "trackingId": 770,
          "widthMajor": 0,
          "widthMinor": 0
        }
      ],
      "timestamp": 1906.663949,
      "touchCount": 1,
      "type": "hardwareState"
    },
    {
      "type": "callbackRequest",
      "when": 0
    },
    {
      "buttonsDown": 0,
      "fingers": [
        {
          "flags": 0,
          "orientation": 0,
          "positionX": 603,
          "positionY": 556,
          "pressure": 51,
          "touchMajor": 0,
          "touchMinor": 0,
          "trackingId": 770,
          "widthMajor": 0,
          "widthMinor": 0
        }
      ],
      "timestamp": 1906.690168,
      "touchCount": 1,
      "type": "hardwareState"
    },
    {
      "type": "callbackRequest",
      "when": 0
    },
    {
      "buttonsDown": 0,
      "fingers": [
        {
          "flags": 0,
          "orientation": 0,
          "positionX": 603,
          "positionY": 556,
          "pressure": 52,
          "touchMajor": 0,
          "touchMinor": 0,
          "trackingId": 770,
          "widthMajor": 0,
          "widthMinor": 0
        }
      ],
      "timestamp": 1906.70774,
      "touchCount": 1,
      "type": "hardwareState"
    },
    {
      "type": "callbackRequest",
      "when": 0
    },
    {
      "buttonsDown": 0,
      "fingers": [
        {
          "flags": 0,
          "orientation": 0,
          "positionX": 604,
          "positionY": 556,
          "pressure": 53,
          "touchMajor": 0,
          "touchMinor": 0,
          "trackingId": 770,
          "widthMajor": 0,
          "widthMinor": 0
        }
      ],
      "timestamp": 1906.733906,
      "touchCount": 1,
      "type": "hardwareState"
    },
    {
      "type": "callbackRequest",
      "when": 0
    },
    {
      "buttonsDown": 0,
      "fingers": [
        {
          "flags": 0,
          "orientation": 0,
          "positionX": 604,
          "positionY": 557,
          "pressure": 53,
          "touchMajor": 0,
          "touchMinor": 0,
          "trackingId": 770,
          "widthMajor": 0,
          "widthMinor": 0
        }
      ],
      "timestamp": 1906.742592,
      "touchCount": 1,
      "type": "hardwareState"
    },
    {
      "type": "callbackRequest",
      "when": 0
    },
    {
      "buttonsDown": 1,
      "fingers": [
        {
          "flags": 0,
          "orientation": 0,
          "positionX": 604,
          "positionY": 558,
          "pressure": 54,
          "touchMajor": 0,
          "touchMinor": 0,
          "trackingId": 770,
          "widthMajor": 0,
          "widthMinor": 0
        }
      ],
      "timestamp": 1906.75154,
      "touchCount": 1,
      "type": "hardwareState"
    },
    {
      "type": "callbackRequest",
      "when": 0
    },
    {
      "buttonsDown": 1,
      "fingers": [
        {
          "flags": 0,
          "orientation": 0,
          "positionX": 604,
          "positionY": 561,
          "pressure": 56,
          "touchMajor": 0,
          "touchMinor": 0,
          "trackingId": 770,
          "widthMajor": 0,
          "widthMinor": 0
        }
      ],
      "timestamp": 1906.769348,
      "touchCount": 1,
      "type": "hardwareState"
    },
    {
      "type": "callbackRequest",
      "when": 0
    },
    {
      "buttonsDown": 1,
      "fingers": [
        {
          "flags": 0,
          "orientation": 0,
          "positionX": 604,
          "positionY": 561,
          "pressure": 57,
          "touchMajor": 0,
          "touchMinor": 0,
          "trackingId": 770,
          "widthMajor": 0,
          "widthMinor": 0
        }
      ],
      "timestamp": 1906.787184,
      "touchCount": 1,
      "type": "hardwareState"
    },
    {
      "down": 1,
      "endTime": 1906.787184,
      "gestureType": "buttonsChange",
      "startTime": 1906.769348,
      "type": "gesture",
      "up": 0
    },
    {
      "type": "callbackRequest",
      "when": 0
    },
    {
      "buttonsDown": 1,
      "fingers": [
        {
          "flags": 0,
          "orientation": 0,
          "positionX": 604,
          "positionY": 562,
          "pressure": 57,
          "touchMajor": 0,
          "touchMinor": 0,
          "trackingId": 770,
          "widthMajor": 0,
          "widthMinor": 0
        }
      ],
      "timestamp": 1906.79613,
      "touchCount": 1,
      "type": "hardwareState"
    },
    {
      "type": "callbackRequest",
      "when": 0
    },
    {
      "buttonsDown": 1,
      "fingers": [
        {
          "flags": 0,
          "orientation": 0,
          "positionX": 604,
          "positionY": 563,
          "pressure": 57,
          "touchMajor": 0,
          "touchMinor": 0,
          "trackingId": 770,
          "widthMajor": 0,
          "widthMinor": 0
        }
      ],
      "timestamp": 1906.822893,
      "touchCount": 1,
      "type": "hardwareState"
    },
    {
      "type": "callbackRequest",
      "when": 0
    },
    {
      "buttonsDown": 1,
      "fingers": [
        {
          "flags": 0,
          "orientation": 0,
          "positionX": 604,
          "positionY": 563,
          "pressure": 56,
          "touchMajor": 0,
          "touchMinor": 0,
          "trackingId": 770,
          "widthMajor": 0,
          "widthMinor": 0
        }
      ],
      "timestamp": 1906.858793,
      "touchCount": 1,
      "type": "hardwareState"
    },
    {
      "type": "callbackRequest",
      "when": 0
    },
    {
      "buttonsDown": 1,
      "fingers": [
        {
          "flags": 0,
          "orientation": 0,
          "positionX": 606,
          "positionY": 563,
          "pressure": 54,
          "touchMajor": 0,
          "touchMinor": 0,
          "trackingId": 770,
          "widthMajor": 0,
          "widthMinor": 0
        }
      ],
      "timestamp": 1906.885387,
      "touchCount": 1,
      "type": "hardwareState"
    },
    {
      "type": "callbackRequest",
      "when": 0
    },
    {
      "buttonsDown": 1,
      "fingers": [
        {
          "flags": 0,
          "orientation": 0,
          "positionX": 607,
          "positionY": 563,
          "pressure": 53,
          "touchMajor": 0,
          "touchMinor": 0,
          "trackingId": 770,
          "widthMajor": 0,
          "widthMinor": 0
        }
      ],
      "timestamp": 1906.89425,
      "touchCount": 1,
      "type": "hardwareState"
    },
    {
      "type": "callbackRequest",
      "when": 0
    },
    {
      "buttonsDown": 0,
      "fingers": [
        {
          "flags": 0,
          "orientation": 0,
          "positionX": 607,
          "positionY": 563,
          "pressure": 53,
          "touchMajor": 0,
          "touchMinor": 0,
          "trackingId": 770,
          "widthMajor": 0,
          "widthMinor": 0
        }
      ],
      "timestamp": 1906.912111,
      "touchCount": 1,
      "type": "hardwareState"
    },
    {
      "down": 0,
      "endTime": 1906.912111,
      "gestureType": "buttonsChange",
      "startTime": 1906.89425,
      "type": "gesture",
      "up": 1
    },
    {
      "type": "callbackRequest",
      "when": 0
    },
    {
      "buttonsDown": 0,
      "fingers": [
        {
          "flags": 0,
          "orientation": 0,
          "positionX": 607,
          "positionY": 561,
          "pressure": 51,
          "touchMajor": 0,
          "touchMinor": 0,
          "trackingId": 770,
          "widthMajor": 0,
          "widthMinor": 0
        }
      ],
      "timestamp": 1906.929936,
      "touchCount": 1,
      "type": "hardwareState"
    },
    {
      "type": "callbackRequest",
      "when": 0
    },
    {
      "buttonsDown": 0,
      "fingers": [
        {
          "flags": 0,
          "orientation": 0,
          "positionX": 607,
          "positionY": 560,
          "pressure": 51,
          "touchMajor": 0,
          "touchMinor": 0,
          "trackingId": 770,
          "widthMajor": 0,
          "widthMinor": 0
        }
      ],
      "timestamp": 1906.947754,
      "touchCount": 1,
      "type": "hardwareState"
    },
    {
      "type": "callbackRequest",
      "when": 0
    },
    {
      "buttonsDown": 0,
      "fingers": [
        {
          "flags": 0,
          "orientation": 0,
          "positionX": 606,
          "positionY": 560,
          "pressure": 51,
          "touchMajor": 0,
          "touchMinor": 0,
          "trackingId": 770,
          "widthMajor": 0,
          "widthMinor": 0
        }
      ],
      "timestamp": 1906.956669,
      "touchCount": 1,
      "type": "hardwareState"
    },
    {
      "type": "callbackRequest",
      "when": 0
    },
    {
      "buttonsDown": 0,
      "fingers": [
        {
          "flags": 0,
          "orientation": 0,
          "positionX": 606,
          "positionY": 560,
          "pressure": 50,
          "touchMajor": 0,
          "touchMinor": 0,
          "trackingId": 770,
          "widthMajor": 0,
          "widthMinor": 0
        }
      ],
      "timestamp": 1906.974537,
      "touchCount": 1,
      "type": "hardwareState"
    },
    {
      "type": "callbackRequest",
      "when": 0
    },
    {
      "buttonsDown": 0,
      "fingers": [
        {
          "flags": 0,
          "orientation": 0,
          "positionX": 606,
          "positionY": 560,
          "pressure": 49,
          "touchMajor": 0,
          "touchMinor": 0,
          "trackingId": 770,
          "widthMajor": 0,
          "widthMinor": 0
        }
      ],
      "timestamp": 1907.001431,
      "touchCount": 1,
      "type": "hardwareState"
    },
    {
      "type": "callbackRequest",
      "when": 0
    },
    {
      "buttonsDown": 0,
      "fingers": [
        {
          "flags": 0,
          "orientation": 0,
          "positionX": 606,
          "positionY": 559,
          "pressure": 49,
          "touchMajor": 0,
          "touchMinor": 0,
          "trackingId": 770,
          "widthMajor": 0,
          "widthMinor": 0
        }
      ],
      "timestamp": 1907.010225,
      "touchCount": 1,
      "type": "hardwareState"
    },
    {
      "type": "callbackRequest",
      "when": 0
    },
    {
      "buttonsDown": 0,
      "fingers": [
        {
          "flags": 0,
          "orientation": 0,
          "positionX": 606,
          "positionY": 559,
          "pressure": 47,
          "touchMajor": 0,
          "touchMinor": 0,
          "trackingId": 770,
          "widthMajor": 0,
          "widthMinor": 0
        }
      ],
      "timestamp": 1907.036813,
      "touchCount": 1,
      "type": "hardwareState"
    },
    {
      "type": "callbackRequest",
      "when": 0
    },
    {
      "buttonsDown": 0,
      "fingers": [
        {
          "flags": 0,
          "orientation": 0,
          "positionX": 605,
          "positionY": 558,
          "pressure": 47,
          "touchMajor": 0,
          "touchMinor": 0,
          "trackingId": 770,
          "widthMajor": 0,
          "widthMinor": 0
        }
      ],
      "timestamp": 1907.045599,
      "touchCount": 1,
      "type": "hardwareState"
    },
    {
      "type": "callbackRequest",
      "when": 0
    },
    {
      "buttonsDown": 0,
      "fingers": [
        {
          "flags": 0,
          "orientation": 0,
          "positionX": 605,
          "positionY": 558,
          "pressure": 46,
          "touchMajor": 0,
          "touchMinor": 0,
          "trackingId": 770,
          "widthMajor": 0,
          "widthMinor": 0
        }
      ],
      "timestamp": 1907.054281,
      "touchCount": 1,
      "type": "hardwareState"
    },
    {
      "type": "callbackRequest",
      "when": 0
    },
    {
      "buttonsDown": 0,
      "fingers": [
        {
          "flags": 0,
          "orientation": 0,
          "positionX": 605,
          "positionY": 558,
          "pressure": 45,
          "touchMajor": 0,
          "touchMinor": 0,
          "trackingId": 770,
          "widthMajor": 0,
          "widthMinor": 0
        }
      ],
      "timestamp": 1907.080872,
      "touchCount": 1,
      "type": "hardwareState"
    },
    {
      "type": "callbackRequest",
      "when": 0
    },
    {
      "buttonsDown": 0,
      "fingers": [
        {
          "flags": 0,
          "orientation": 0,
          "positionX": 605,
          "positionY": 558,
          "pressure": 44,
          "touchMajor": 0,
          "touchMinor": 0,
          "trackingId": 770,
          "widthMajor": 0,
          "widthMinor": 0
        }
      ],
      "timestamp": 1907.089727,
      "touchCount": 1,
      "type": "hardwareState"
    },
    {
      "type": "callbackRequest",
      "when": 0
    },
    {
      "buttonsDown": 0,
      "fingers": [
        {
          "flags": 0,
          "orientation": 0,
          "positionX": 605,
          "positionY": 558,
          "pressure": 45,
          "touchMajor": 0,
          "touchMinor": 0,
          "trackingId": 770,
          "widthMajor": 0,
          "widthMinor": 0
        }
      ],
      "timestamp": 1907.107162,
      "touchCount": 1,
      "type": "hardwareState"
    },
    {
      "type": "callbackRequest",
      "when": 0
    },
    {
      "buttonsDown": 0,
      "fingers": [
        {
          "flags": 0,
          "orientation": 0,
          "positionX": 605,
          "positionY": 558,
          "pressure": 46,
          "touchMajor": 0,
          "touchMinor": 0,
          "trackingId": 770,
          "widthMajor": 0,
          "widthMinor": 0
        }
      ],
      "timestamp": 1907.133508,
      "touchCount": 1,
      "type": "hardwareState"
    },
    {
      "type": "callbackRequest",
      "when": 0
    },
    {
      "buttonsDown": 0,
      "fingers": [
        {
          "flags": 0,
          "orientation": 0,
          "positionX": 605,
          "positionY": 557,
          "pressure": 47,
          "touchMajor": 0,
          "touchMinor": 0,
          "trackingId": 770,
          "widthMajor": 0,
          "widthMinor": 0
        }
      ],
      "timestamp": 1907.142197,
      "touchCount": 1,
      "type": "hardwareState"
    },
    {
      "type": "callbackRequest",
      "when": 0
    },
    {
      "buttonsDown": 0,
      "fingers": [
        {
          "flags": 0,
          "orientation": 0,
          "positionX": 605,
          "positionY": 557,
          "pressure": 46,
          "touchMajor": 0,
          "touchMinor": 0,
          "trackingId": 770,
          "widthMajor": 0,
          "widthMinor": 0
        }
      ],
      "timestamp": 1907.159742,
      "touchCount": 1,
      "type": "hardwareState"
    },
    {
      "type": "callbackRequest",
      "when": 0
    },
    {
      "buttonsDown": 0,
      "fingers": [
        {
          "flags": 0,
          "orientation": 0,
          "positionX": 605,
          "positionY": 557,
          "pressure": 45,
          "touchMajor": 0,
          "touchMinor": 0,
          "trackingId": 770,
          "widthMajor": 0,
          "widthMinor": 0
        }
      ],
      "timestamp": 1907.168626,
      "touchCount": 1,
      "type": "hardwareState"
    },
    {
      "type": "callbackRequest",
      "when": 0
    },
    {
      "buttonsDown": 0,
      "fingers": [
        {
          "flags": 0,
          "orientation": 0,
          "positionX": 605,
          "positionY": 557,
          "pressure": 46,
          "touchMajor": 0,
          "touchMinor": 0,
          "trackingId": 770,
          "widthMajor": 0,
          "widthMinor": 0
        }
      ],
      "timestamp": 1907.177326,
      "touchCount": 1,
      "type": "hardwareState"
    },
    {
      "type": "callbackRequest",
      "when": 0
    },
    {
      "buttonsDown": 0,
      "fingers": [
        {
          "flags": 0,
          "orientation": 0,
          "positionX": 605,
          "positionY": 557,
          "pressure": 45,
          "touchMajor": 0,
          "touchMinor": 0,
          "trackingId": 770,
          "widthMajor": 0,
          "widthMinor": 0
        }
      ],
      "timestamp": 1907.230127,
      "touchCount": 1,
      "type": "hardwareState"
    },
    {
      "type": "callbackRequest",
      "when": 0
    },
    {
      "buttonsDown": 0,
      "fingers": [
        {
          "flags": 0,
          "orientation": 0,
          "positionX": 605,
          "positionY": 557,
          "pressure": 47,
          "touchMajor": 0,
          "touchMinor": 0,
          "trackingId": 770,
          "widthMajor": 0,
          "widthMinor": 0
        }
      ],
      "timestamp": 1907.238991,
      "touchCount": 1,
      "type": "hardwareState"
    },
    {
      "type": "callbackRequest",
      "when": 0
    },
    {
      "buttonsDown": 0,
      "fingers": [
        {
          "flags": 0,
          "orientation": 0,
          "positionX": 605,
          "positionY": 557,
          "pressure": 48,
          "touchMajor": 0,
          "touchMinor": 0,
          "trackingId": 770,
          "widthMajor": 0,
          "widthMinor": 0
        }
      ],
      "timestamp": 1907.274207,
      "touchCount": 1,
      "type": "hardwareState"
    },
    {
      "type": "callbackRequest",
      "when": 0
    },
    {
      "buttonsDown": 0,
      "fingers": [
        {
          "flags": 0,
          "orientation": 0,
          "positionX": 605,
          "positionY": 557,
          "pressure": 50,
          "touchMajor": 0,
          "touchMinor": 0,
          "trackingId": 770,
          "widthMajor": 0,
          "widthMinor": 0
        }
      ],
      "timestamp": 1907.283257,
      "touchCount": 1,
      "type": "hardwareState"
    },
    {
      "type": "callbackRequest",
      "when": 0
    },
    {
      "buttonsDown": 0,
      "fingers": [
        {
          "flags": 0,
          "orientation": 0,
          "positionX": 605,
          "positionY": 557,
          "pressure": 51,
          "touchMajor": 0,
          "touchMinor": 0,
          "trackingId": 770,
          "widthMajor": 0,
          "widthMinor": 0
        }
      ],
      "timestamp": 1907.309473,
      "touchCount": 1,
      "type": "hardwareState"
    },
    {
      "type": "callbackRequest",
      "when": 0
    },
    {
      "buttonsDown": 0,
      "fingers": [
        {
          "flags": 0,
          "orientation": 0,
          "positionX": 605,
          "positionY": 558,
          "pressure": 53,
          "touchMajor": 0,
          "touchMinor": 0,
          "trackingId": 770,
          "widthMajor": 0,
          "widthMinor": 0
        }
      ],
      "timestamp": 1907.318508,
      "touchCount": 1,
      "type": "hardwareState"
    },
    {
      "type": "callbackRequest",
      "when": 0
    },
    {
      "buttonsDown": 0,
      "fingers": [
        {
          "flags": 0,
          "orientation": 0,
          "positionX": 605,
          "positionY": 558,
          "pressure": 54,
          "touchMajor": 0,
          "touchMinor": 0,
          "trackingId": 770,
          "widthMajor": 0,
          "widthMinor": 0
        }
      ],
      "timestamp": 1907.336383,
      "touchCount": 1,
      "type": "hardwareState"
    },
    {
      "type": "callbackRequest",
      "when": 0
    },
    {
      "buttonsDown": 1,
      "fingers": [
        {
          "flags": 0,
          "orientation": 0,
          "positionX": 605,
          "positionY": 559,
          "pressure": 54,
          "touchMajor": 0,
          "touchMinor": 0,
          "trackingId": 770,
          "widthMajor": 0,
          "widthMinor": 0
        }
      ],
      "timestamp": 1907.345301,
      "touchCount": 1,
      "type": "hardwareState"
    },
    {
      "type": "callbackRequest",
      "when": 0
    },
    {
      "buttonsDown": 1,
      "fingers": [
        {
          "flags": 0,
          "orientation": 0,
          "positionX": 605,
          "positionY": 560,
          "pressure": 55,
          "touchMajor": 0,
          "touchMinor": 0,
          "trackingId": 770,
          "widthMajor": 0,
          "widthMinor": 0
        }
      ],
      "timestamp": 1907.354219,
      "touchCount": 1,
      "type": "hardwareState"
    },
    {
      "type": "callbackRequest",
      "when": 0
    },
    {
      "buttonsDown": 1,
      "fingers": [
        {
          "flags": 0,
          "orientation": 0,
          "positionX": 605,
          "positionY": 561,
          "pressure": 56,
          "touchMajor": 0,
          "touchMinor": 0,
          "trackingId": 770,
          "widthMajor": 0,
          "widthMinor": 0
        }
      ],
      "timestamp": 1907.372026,
      "touchCount": 1,
      "type": "hardwareState"
    },
    {
      "type": "callbackRequest",
      "when": 0
    },
    {
      "buttonsDown": 1,
      "fingers": [
        {
          "flags": 0,
          "orientation": 0,
          "positionX": 605,
          "positionY": 562,
          "pressure": 57,
          "touchMajor": 0,
          "touchMinor": 0,
          "trackingId": 770,
          "widthMajor": 0,
          "widthMinor": 0
        }
      ],
      "timestamp": 1907.380826,
      "touchCount": 1,
      "type": "hardwareState"
    },
    {
      "down": 1,
      "endTime": 1907.380826,
      "gestureType": "buttonsChange",
      "startTime": 1907.372026,
      "type": "gesture",
      "up": 0
    },
    {
      "type": "callbackRequest",
      "when": 0
    },
    {
      "buttonsDown": 1,
      "fingers": [
        {
          "flags": 0,
          "orientation": 0,
          "positionX": 605,
          "positionY": 563,
          "pressure": 57,
          "touchMajor": 0,
          "touchMinor": 0,
          "trackingId": 770,
          "widthMajor": 0,
          "widthMinor": 0
        }
      ],
      "timestamp": 1907.389849,
      "touchCount": 1,
      "type": "hardwareState"
    },
    {
      "type": "callbackRequest",
      "when": 0
    },
    {
      "buttonsDown": 1,
      "fingers": [
        {
          "flags": 0,
          "orientation": 0,
          "positionX": 605,
          "positionY": 564,
          "pressure": 57,
          "touchMajor": 0,
          "touchMinor": 0,
          "trackingId": 770,
          "widthMajor": 0,
          "widthMinor": 0
        }
      ],
      "timestamp": 1907.416494,
      "touchCount": 1,
      "type": "hardwareState"
    },
    {
      "type": "callbackRequest",
      "when": 0
    },
    {
      "buttonsDown": 1,
      "fingers": [
        {
          "flags": 0,
          "orientation": 0,
          "positionX": 605,
          "positionY": 565,
          "pressure": 58,
          "touchMajor": 0,
          "touchMinor": 0,
          "trackingId": 770,
          "widthMajor": 0,
          "widthMinor": 0
        }
      ],
      "timestamp": 1907.425404,
      "touchCount": 1,
      "type": "hardwareState"
    },
    {
      "type": "callbackRequest",
      "when": 0
    },
    {
      "buttonsDown": 1,
      "fingers": [
        {
          "flags": 0,
          "orientation": 0,
          "positionX": 605,
          "positionY": 565,
          "pressure": 57,
          "touchMajor": 0,
          "touchMinor": 0,
          "trackingId": 770,
          "widthMajor": 0,
          "widthMinor": 0
        }
      ],
      "timestamp": 1907.470052,
      "touchCount": 1,
      "type": "hardwareState"
    },
    {
      "type": "callbackRequest",
      "when": 0
    },
    {
      "buttonsDown": 1,
      "fingers": [
        {
          "flags": 0,
          "orientation": 0,
          "positionX": 606,
          "positionY": 565,
          "pressure": 58,
          "touchMajor": 0,
          "touchMinor": 0,
          "trackingId": 770,
          "widthMajor": 0,
          "widthMinor": 0
        }
      ],
      "timestamp": 1907.478956,
      "touchCount": 1,
      "type": "hardwareState"
    },
    {
      "type": "callbackRequest",
      "when": 0
    },
    {
      "buttonsDown": 1,
      "fingers": [
        {
          "flags": 0,
          "orientation": 0,
          "positionX": 606,
          "positionY": 565,
          "pressure": 56,
          "touchMajor": 0,
          "touchMinor": 0,
          "trackingId": 770,
          "widthMajor": 0,
          "widthMinor": 0
        }
      ],
      "timestamp": 1907.487914,
      "touchCount": 1,
      "type": "hardwareState"
    },
    {
      "type": "callbackRequest",
      "when": 0
    },
    {
      "buttonsDown": 1,
      "fingers": [
        {
          "flags": 0,
          "orientation": 0,
          "positionX": 606,
          "positionY": 564,
          "pressure": 54,
          "touchMajor": 0,
          "touchMinor": 0,
          "trackingId": 770,
          "widthMajor": 0,
          "widthMinor": 0
        }
      ],
      "timestamp": 1907.505769,
      "touchCount": 1,
      "type": "hardwareState"
    },
    {
      "type": "callbackRequest",
      "when": 0
    },
    {
      "buttonsDown": 0,
      "fingers": [
        {
          "flags": 0,
          "orientation": 0,
          "positionX": 609,
          "positionY": 564,
          "pressure": 49,
          "touchMajor": 0,
          "touchMinor": 0,
          "trackingId": 770,
          "widthMajor": 0,
          "widthMinor": 0
        }
      ],
      "timestamp": 1907.514835,
      "touchCount": 1,
      "type": "hardwareState"
    },
    {
      "down": 0,
      "endTime": 1907.514835,
      "gestureType": "buttonsChange",
      "startTime": 1907.505769,
      "type": "gesture",
      "up": 1
    },
    {
      "type": "callbackRequest",
      "when": 0
    },
    {
      "buttonsDown": 0,
      "fingers": [
        {
          "flags": 0,
          "orientation": 0,
          "positionX": 609,
          "positionY": 562,
          "pressure": 38,
          "touchMajor": 0,
          "touchMinor": 0,
          "trackingId": 770,
          "widthMajor": 0,
          "widthMinor": 0
        }
      ],
      "timestamp": 1907.523557,
      "touchCount": 1,
      "type": "hardwareState"
    },
    {
      "type": "callbackRequest",
      "when": 0
    },
    {
      "buttonsDown": 0,
      "fingers": [
        {
          "flags": 0,
          "orientation": 0,
          "positionX": 618,
          "positionY": 565,
          "pressure": 20,
          "touchMajor": 0,
          "touchMinor": 0,
          "trackingId": 770,
          "widthMajor": 0,
          "widthMinor": 0
        }
      ],
      "timestamp": 1907.532538,
      "touchCount": 1,
      "type": "hardwareState"
    },
    {
      "type": "callbackRequest",
      "when": 0
    },
    {
      "buttonsDown": 0,
      "fingers": [],
      "timestamp": 1907.540106,
      "touchCount": 0,
      "type": "hardwareState"
    }
  ],
  "gesturesVersion": "9999-66b2b639d887c95e2b1a9b24201a3e8b924b4d95",
  "hardwareProperties": {
    "bottom": 680,
    "isButtonPad": true,
    "left": 0,
    "maxFingerCount": 15,
    "maxTouchCount": 5,
    "right": 1280,
    "semiMt": false,
    "supportsT5R2": false,
    "top": 0,
    "xDpi": 133,
    "xResolution": 12,
    "yDpi": 133,
    "yResolution": 10
  },
  "properties": {
    "Apple TP Filter Enable": false,
    "Bottom Zone Size": 10,
    "Box Width": 1,
    "Button Evaluation Timeout": 0.03,
    "Change Min Move Distance": 3,
    "Change Timeout": 0.04,
    "Damp Scroll Min Move Factor": 0.2,
    "Drumroll Co Move Ratio": 1.2,
    "Drumroll Max Speed Change Factor": 15,
    "Drumroll Speed Thresh": 400,
    "Evaluation Timeout": 0.2,
    "Fling Buffer Depth": 3,
    "Fling Stop Timeout": 0.08,
    "Horizontal Scroll Snap Slope": 0.5773502588272095,
    "IIR Distance Threshold": 1000,
    "IIR a1": 0,
    "IIR a2": 0,
    "IIR b0": 1,
    "IIR b1": 0,
    "IIR b2": 0,
    "IIR b3": 0,
    "Input Queue Delay": 0,
    "Input Queue Max Delay": 0.017,
    "Input Queue Min Nonsuppression Speed": 200,
    "Inter-Tap Timeout": 0.15,
    "Keyboard Palm Prevent Timeout": 0.5,
    "Keyboard Touched Timeval High": 1934,
    "Keyboard Touched Timeval Low": 764639,
    "Logging Notify": 1,
    "Logging Reset": 0,
    "Max Allowed Pressure Change Per Sec": 800,
    "Max Hysteresis Pressure Per Sec": 600,
    "Merge Max Ratio": 0.32556813955307007,
    "Min Interpolate Period": 0.021,
    "Motion Tap Prevent Timeout": 0.05,
    "No-Pinch Certain Ratio": 100,
    "No-Pinch Guess Ratio": 50,
    "One Finger Click Wiggle Timeout": 0.2,
    "Palm Edge Zone Min Point Speed": 100,
    "Palm Edge Zone Width": 14,
    "Palm Eval Timeout": 0.1,
    "Palm Pressure": 200,
    "Palm Stationary Distance": 4,
    "Palm Stationary Time": 2,
    "Palm Width": 21.2,
    "Pinch Certain Minimal Movement": 8,
    "Pinch Enable": true,
    "Pinch Guess Minimal Movement": 4,
    "Pinch Noise Level": 1,
    "Point X Out Scale": 1,
    "Point Y Out Scale": 1,
    "Pointer Accel Curve": "",
    "Pressure Calibration Offset": -4.0418716653545,
    "Pressure Calibration Slope": 1.9403694168841,
    "Pressure Minimum Threshold": 0,
    "Quick Move Distance Thresh": 3,
    "Scroll Accel Curve": "",
    "Scroll Stationary Finger Max Distance": 1,
    "Scroll X Out Scale": 1.25,
    "Scroll Y Out Scale": 1.25,
    "SemiMT Clip Non Linear Area": true,
    "SemiMT Correcting Filter Enable": false,
    "SemiMT Finger Jump Distance": 260,
    "SemiMT Finger Move Threshold": 130,
    "SemiMT Hysteresis Pressure": 25,
    "SemiMT Max Sensor Jump Distance": 910,
    "SemiMT Min Sensor Jump Distance": 150,
    "SemiMT Non Linear Area Bottom": 4570,
    "SemiMT Non Linear Area Left": 1360,
    "SemiMT Non Linear Area Right": 5560,
    "SemiMT Non Linear Area Top": 1250,
    "SemiMT Pressure Threshold": 30,
    "Sensitivity": 3,
    "Sensor Jump Filter Enable": true,
    "Sensor Jump Max Dist": 7.5,
    "Sensor Jump Min Dist": 0.9,
    "Sensor Jump Similar Multiplier": 0.9,
    "Split Merge Max Movement": 3,
    "Split Merge Max Separation": 17,
    "Suppress Immediate Tapdown": true,
    "T5R2 Three Finger Click Enable": false,
    "T5R2 Touch Count Correct Enabled": true,
    "Tap Drag Delay": 0.1,
    "Tap Drag Lock Enable": false,
    "Tap Drag Stationary Time": 0.05,
    "Tap Drag Timeout": 0.3,
    "Tap Enable": true,
    "Tap Exclusion Border Width": 8,
    "Tap Maximum Movement": 0.0001,
    "Tap Min Separation": 10,
    "Tap Minimum Pressure": 25,
    "Tap Move Distance": 2,
    "Tap Paused": false,
    "Tap Timeout": 0.2,
    "Three Finger Click Enable": false,
    "Three Finger Close Distance Thresh": 50,
    "Three Finger Swipe Distance Thresh": 10,
    "Thumb Evaluation Timeout": 0.06,
    "Thumb Movement Factor": 0.5,
    "Touchpad Device Output Bias on X-Axis": 0,
    "Touchpad Device Output Bias on Y-Axis": 0,
    "Two Finger Horizontal Close Distance Thresh": 50,
    "Two Finger Pressure Diff Factor": 1.65,
    "Two Finger Pressure Diff Thresh": 32,
    "Two Finger Scroll Distance Thresh": 2,
    "Two Finger Vertical Close Distance Thresh": 30,
    "Vertical Scroll Snap Slope": 1.191753625869751,
    "Wiggle Button Down Timeout": 0.75,
    "Wiggle Max Distance": 5.5,
    "Wiggle Timeout": 0.075
  },
  "version": 1
}
